…
## Examples

These are basic examples which show you how to use the `clccr` package
to compute the CLCC indicator. The baseline indicator is calculated with
the function `clcc`.

``` r
library(clccr)

# computing the CLCC indicator for three example inventories (cars)

clcc(path = path_to_folder)
#> # A tibble: 33 × 3
#>    object     phase                   clcc
#>    <chr>      <chr>                  <dbl>
#>  1 2019       1 kwh bioenergy 2020 0.0394 
#>  2 2019       1 kwh pv 2020        0.0147 
#>  3 2019       total                0.0409 
#>  4 car_diesel batteria             0      
#>  5 car_diesel manto stradale       0      
#>  6 car_diesel manutenzione         0.00195
#>  7 car_diesel produzione           0.00726
#>  8 car_diesel total                0.0421 
#>  9 car_diesel uso                  0      
#> 10 car_diesel usura freni          0      
#> # … with 23 more rows
```

Setting the `critical` argument to `TRUE`, function `clcc` returns the
CLCC indicator computed considering critical materials only. The output
tibble provides also the relative share of critical materials on the
baseline CLCC.

``` r

# computing the critical CLCC indicator

clcc(path = path_to_folder, critical = TRUE)
#> # A tibble: 33 × 5
#>    object     phase                   clcc clcc_critical share_critical
#>    <chr>      <chr>                  <dbl>         <dbl>          <dbl>
#>  1 2019       1 kwh bioenergy 2020 0.0394      0.000141           0.358
#>  2 2019       1 kwh pv 2020        0.0147      0.000326           2.21 
#>  3 2019       total                0.0409      0.000174           0.425
#>  4 car_diesel batteria             0           0                  0    
#>  5 car_diesel manto stradale       0           0                  0    
#>  6 car_diesel manutenzione         0.00195     0.0000102          0.523
#>  7 car_diesel produzione           0.00726     0.0000986          1.36 
#>  8 car_diesel total                0.0421      0.000166           0.394
#>  9 car_diesel uso                  0           0                  0    
#> 10 car_diesel usura freni          0           0                  0    
#> # … with 23 more rows
```
…
